-------------------------------------------------------------------------------
Test set: sql.MySQLTest
-------------------------------------------------------------------------------
Tests run: 1, Failures: 0, Errors: 0, Skipped: 0, Time elapsed: 1.558 s - in sql.MySQLTest
