/home/miguel/IdeaProjects/ESMaven/src/main/java/sql/mysql/MySQL.java
/home/miguel/IdeaProjects/ESMaven/src/main/java/main/Main.java
/home/miguel/IdeaProjects/ESMaven/src/main/java/calculator/Calculator.java
/home/miguel/IdeaProjects/ESMaven/src/main/java/sql/SQL.java
